HW 03
…
#puts the two dataframes together
covid_survey_summary_stats <- rbind(covid_survey_summary_stats_all, covid_survey_summary_stats_by_group) #*

covid_survey_summary_stats

# A tibble: 132 × 6
   response        mean   low  high explanatory explanatory_value
   <chr>          <dbl> <dbl> <dbl> <chr>       <fct>            
 1 resp_concern_…  3.28     1   5   ALL         ""               
 2 resp_confiden…  1.43     1   2   ALL         ""               
 3 resp_feel_saf…  1.36     1   2   ALL         ""               
 4 resp_safety     2.03     1   5   ALL         ""               
 5 resp_trust_in…  1.40     1   2   ALL         ""               
 6 resp_will_rec…  1.21     1   2   ALL         ""               
 7 resp_concern_…  3.35     2   4.4 exp_age_bin "<20"            
 8 resp_confiden…  1.65     1   2.4 exp_age_bin "<20"            
 9 resp_feel_saf…  1.71     1   3.8 exp_age_bin "<20"            
10 resp_safety     1.41     1   2   exp_age_bin "<20"            
# ℹ 122 more rows
…
